658431919
17111757
187643681
36326550332027304
24318066568323000
1
7755565802065770096488807
-826467602
-125502040
13194636
380808734
907963387
108591055263536760
617348605
104613887
82838125
66842980254334045
37187936733107188783715059
12065712266052240
-443299002
51829769778040755
389327257
158926833807426
66218066277392256
389766624
173980483
41640010463768329583433723094641
122476962
17935899303589200
22608094758998592
774733057351069054219439401
1825682089104742
35576884172910074
305872100250352795660668831
36325591216587682
415793536
21756760506245113
73485569998994335
-190058184
-3905299
1062544358
526052483
285314359
984702308
38692063976438385
2591072111916090
1560857767975602
41976679871229460
-519875240
243715217
9764897357399904
31586435914714462
-825569696
904622483
671949636
219251989
115826729
301867148894260586
1013319893
469614037536400
623214773
750073308
-413710307
111195456
816052484
1
531906256
179688340394943666
92204489372526538
4254919758905454
153444305
437407585313845204024788338757334081
-13277303
115707449729564644
365395355274735440
200804184
281258969
212010857583675475
281288359548390552574026104
347839945
2682178039344706
3479159228307452818279488
1
515326831
317840552
318857413
148851220
182135117
49142248
141567319
243290407
214997216
209303556773620666
-789401852
37734070
-94495108
-5580722
421906227
774773121
69094504064021694853220081
-316693321
1
-654398110
821560975
212300292
1
33061998578841781
422448999
624650293
332443181798899600
15140896789384712
15810262294866239981826856
1
297824980
30193077692812860
129081776
86634467547144
15418407450384
211006962044665463049182174265121
1
-301027828
777556254
106589466
-48607982
289147036
61234745
-182790071
1
168237726
912050413
448683356
529536577828500
47075839040768136
-84701732
21619671032359610
878731529
737779173024470
2569047483235984
414754776240848280
710694361
152143408
64974611536316781338891936662868161
1
299865213
1324056638
64995721490774740
-108205108
100481664777299394977088000
637277215
531615070
2097360634726450
45361879327091080
5867479651649220
725127738
-10050078
1278823295
570117543
10919907033692881
-79455229
582527187360000
3996078153636283596756545600160000
895841670
2620071861320245
231289049
522548375170230600
-46285943
52534196015271673249
67016169
-390660367
311444272
-588075912
72091021749702546656575999
418981966
1596529694385522
3435851
-103265221
6090148948003790
574879956
255101204411287
3654160137332144
926866747
68734332
1
18085876
526091990
649613946
3647099837075500
64498384420969255884506804363021281
589460022
541394600
248533945
234306518
56844161690458926
313912984
-62162218
358013609
382558320686430
629124626
42778018319694402
644773597
325160446
57606895145787333153737212158508161
-239783318
-290915203
2085857912516619178346726454474481
26518811
66769174
6955211139293550
1
2531799697814671
2629890931035893129487
1089396894156169
10254266853087484976856128
1
48066562613275074188519667006250000
1144605362
1
220338913
-4363429
558088671
955048178
358413388
-65864154
559149976
641066369
824635480
53860582
166285095367065840
492792530
3543745354421710
45263027273881760
